%YAML 1.1
%TAG !u! tag:unity3d.com,2011:
--- !u!29 &1
OcclusionCullingSettings:
  m_ObjectHideFlags: 0
  serializedVersion: 2
  m_OcclusionBakeSettings:
    smallestOccluder: 5
    smallestHole: 0.25
    backfaceThreshold: 100
  m_SceneGUID: 00000000000000000000000000000000
  m_OcclusionCullingData: {fileID: 0}
--- !u!104 &2
RenderSettings:
  m_ObjectHideFlags: 0
  serializedVersion: 9
  m_Fog: 0
  m_FogColor: {r: 0.5, g: 0.5, b: 0.5, a: 1}
  m_FogMode: 3
  m_FogDensity: 0.01
  m_LinearFogStart: 0
  m_LinearFogEnd: 300
  m_AmbientSkyColor: {r: 0.212, g: 0.227, b: 0.259, a: 1}
  m_AmbientEquatorColor: {r: 0.114, g: 0.125, b: 0.133, a: 1}
  m_AmbientGroundColor: {r: 0.047, g: 0.043, b: 0.035, a: 1}
  m_AmbientIntensity: 1
  m_AmbientMode: 3
  m_SubtractiveShadowColor: {r: 0.42, g: 0.478, b: 0.627, a: 1}
  m_SkyboxMaterial: {fileID: 0}
  m_HaloStrength: 0.5
  m_FlareStrength: 1
  m_FlareFadeSpeed: 3
  m_HaloTexture: {fileID: 0}
  m_SpotCookie: {fileID: 10001, guid: 0000000000000000e000000000000000, type: 0}
  m_DefaultReflectionMode: 0
  m_DefaultReflectionResolution: 128
  m_ReflectionBounces: 1
  m_ReflectionIntensity: 1
  m_CustomReflection: {fileID: 0}
  m_Sun: {fileID: 0}
  m_IndirectSpecularColor: {r: 0, g: 0, b: 0, a: 1}
  m_UseRadianceAmbientProbe: 0
--- !u!157 &3
LightmapSettings:
  m_ObjectHideFlags: 0
  serializedVersion: 11
  m_GIWorkflowMode: 1
  m_GISettings:
    serializedVersion: 2
    m_BounceScale: 1
    m_IndirectOutputScale: 1
    m_AlbedoBoost: 1
    m_EnvironmentLightingMode: 0
    m_EnableBakedLightmaps: 0
    m_EnableRealtimeLightmaps: 0
  m_LightmapEditorSettings:
    serializedVersion: 12
    m_Resolution: 2
    m_BakeResolution: 40
    m_AtlasSize: 1024
    m_AO: 0
    m_AOMaxDistance: 1
    m_CompAOExponent: 1
    m_CompAOExponentDirect: 0
    m_ExtractAmbientOcclusion: 0
    m_Padding: 2
    m_LightmapParameters: {fileID: 0}
    m_LightmapsBakeMode: 1
    m_TextureCompression: 1
    m_FinalGather: 0
    m_FinalGatherFiltering: 1
    m_FinalGatherRayCount: 256
    m_ReflectionCompression: 2
    m_MixedBakeMode: 2
    m_BakeBackend: 1
    m_PVRSampling: 1
    m_PVRDirectSampleCount: 32
    m_PVRSampleCount: 512
    m_PVRBounces: 2
    m_PVREnvironmentSampleCount: 256
    m_PVREnvironmentReferencePointCount: 2048
    m_PVRFilteringMode: 1
    m_PVRDenoiserTypeDirect: 1
    m_PVRDenoiserTypeIndirect: 1
    m_PVRDenoiserTypeAO: 1
    m_PVRFilterTypeDirect: 0
    m_PVRFilterTypeIndirect: 0
    m_PVRFilterTypeAO: 0
    m_PVREnvironmentMIS: 1
    m_PVRCulling: 1
    m_PVRFilteringGaussRadiusDirect: 1
    m_PVRFilteringGaussRadiusIndirect: 5
    m_PVRFilteringGaussRadiusAO: 2
    m_PVRFilteringAtrousPositionSigmaDirect: 0.5
    m_PVRFilteringAtrousPositionSigmaIndirect: 2
    m_PVRFilteringAtrousPositionSigmaAO: 1
    m_ExportTrainingData: 0
    m_TrainingDataDestination: TrainingData
    m_LightProbeSampleCountMultiplier: 4
  m_LightingDataAsset: {fileID: 0}
  m_UseShadowmask: 1
--- !u!196 &4
NavMeshSettings:
  serializedVersion: 2
  m_ObjectHideFlags: 0
  m_BuildSettings:
    serializedVersion: 2
    agentTypeID: 0
    agentRadius: 0.5
    agentHeight: 2
    agentSlope: 45
    agentClimb: 0.4
    ledgeDropHeight: 0
    maxJumpAcrossDistance: 0
    minRegionArea: 2
    manualCellSize: 0
    cellSize: 0.16666667
    manualTileSize: 0
    tileSize: 256
    accuratePlacement: 0
    debug:
      m_Flags: 0
  m_NavMeshData: {fileID: 0}
--- !u!1 &326029444 stripped
GameObject:
  m_CorrespondingSourceObject: {fileID: 4148348842035405949, guid: 453b5f425ed8bd011afc58a665c3f5b1,
    type: 3}
  m_PrefabInstance: {fileID: 6500832106420055812}
  m_PrefabAsset: {fileID: 0}
--- !u!114 &326029445
MonoBehaviour:
  m_ObjectHideFlags: 0
  m_CorrespondingSourceObject: {fileID: 0}
  m_PrefabInstance: {fileID: 0}
  m_PrefabAsset: {fileID: 0}
  m_GameObject: {fileID: 326029444}
  m_Enabled: 1
  m_EditorHideFlags: 0
  m_Script: {fileID: 11500000, guid: 7034563fff616474a8e0165e45dc6c57, type: 3}
  m_Name: 
  m_EditorClassIdentifier: 
--- !u!1 &1299064421 stripped
GameObject:
  m_CorrespondingSourceObject: {fileID: 3636902972547344906, guid: 453b5f425ed8bd011afc58a665c3f5b1,
    type: 3}
  m_PrefabInstance: {fileID: 6500832106420055812}
  m_PrefabAsset: {fileID: 0}
--- !u!114 &1299064424
MonoBehaviour:
  m_ObjectHideFlags: 0
  m_CorrespondingSourceObject: {fileID: 0}
  m_PrefabInstance: {fileID: 0}
  m_PrefabAsset: {fileID: 0}
  m_GameObject: {fileID: 1299064421}
  m_Enabled: 1
  m_EditorHideFlags: 0
  m_Script: {fileID: 11500000, guid: af97301dd34c841dea6840bc8581e8b5, type: 3}
  m_Name: 
  m_EditorClassIdentifier: 
  speed: 1
--- !u!82 &1299064425
AudioSource:
  m_ObjectHideFlags: 0
  m_CorrespondingSourceObject: {fileID: 0}
  m_PrefabInstance: {fileID: 0}
  m_PrefabAsset: {fileID: 0}
  m_GameObject: {fileID: 1299064421}
  m_Enabled: 1
  serializedVersion: 4
  OutputAudioMixerGroup: {fileID: 0}
  m_audioClip: {fileID: 8300000, guid: e812cd1f8e3aa4e18aa95c15503ce316, type: 3}
  m_PlayOnAwake: 1
  m_Volume: 0.29
  m_Pitch: 1
  Loop: 1
  Mute: 0
  Spatialize: 0
  SpatializePostEffects: 0
  Priority: 128
  DopplerLevel: 1
  MinDistance: 1
  MaxDistance: 500
  Pan2D: 0
  rolloffMode: 0
  BypassEffects: 0
  BypassListenerEffects: 0
  BypassReverbZones: 0
  rolloffCustomCurve:
    serializedVersion: 2
    m_Curve:
    - serializedVersion: 3
      time: 0
      value: 1
      inSlope: 0
      outSlope: 0
      tangentMode: 0
      weightedMode: 0
      inWeight: 0.33333334
      outWeight: 0.33333334
    - serializedVersion: 3
      time: 1
      value: 0
      inSlope: 0
      outSlope: 0
      tangentMode: 0
      weightedMode: 0
      inWeight: 0.33333334
      outWeight: 0.33333334
    m_PreInfinity: 2
    m_PostInfinity: 2
    m_RotationOrder: 4
  panLevelCustomCurve:
    serializedVersion: 2
    m_Curve:
    - serializedVersion: 3
      time: 0
      value: 0
      inSlope: 0
      outSlope: 0
      tangentMode: 0
      weightedMode: 0
      inWeight: 0.33333334
      outWeight: 0.33333334
    m_PreInfinity: 2
    m_PostInfinity: 2
    m_RotationOrder: 4
  spreadCustomCurve:
    serializedVersion: 2
    m_Curve:
    - serializedVersion: 3
      time: 0
      value: 0
      inSlope: 0
      outSlope: 0
      tangentMode: 0
      weightedMode: 0
      inWeight: 0.33333334
      outWeight: 0.33333334
    m_PreInfinity: 2
    m_PostInfinity: 2
    m_RotationOrder: 4
  reverbZoneMixCustomCurve:
    serializedVersion: 2
    m_Curve:
    - serializedVersion: 3
      time: 0
      value: 1
      inSlope: 0
      outSlope: 0
      tangentMode: 0
      weightedMode: 0
      inWeight: 0.33333334
      outWeight: 0.33333334
    m_PreInfinity: 2
    m_PostInfinity: 2
    m_RotationOrder: 4
--- !u!1 &1888673875 stripped
GameObject:
  m_CorrespondingSourceObject: {fileID: 3636902974049418553, guid: 453b5f425ed8bd011afc58a665c3f5b1,
    type: 3}
  m_PrefabInstance: {fileID: 6500832106420055812}
  m_PrefabAsset: {fileID: 0}
--- !u!114 &1888673878
MonoBehaviour:
  m_ObjectHideFlags: 0
  m_CorrespondingSourceObject: {fileID: 0}
  m_PrefabInstance: {fileID: 0}
  m_PrefabAsset: {fileID: 0}
  m_GameObject: {fileID: 1888673875}
  m_Enabled: 1
  m_EditorHideFlags: 0
  m_Script: {fileID: 11500000, guid: 8287eb84cd6c44a7481f7a97dac465b3, type: 3}
  m_Name: 
  m_EditorClassIdentifier: 
  speed: 1
--- !u!1001 &6500832106420055812
PrefabInstance:
  m_ObjectHideFlags: 0
  serializedVersion: 2
  m_Modification:
    m_TransformParent: {fileID: 0}
    m_Modifications:
    - target: {fileID: 12785507296127566, guid: 453b5f425ed8bd011afc58a665c3f5b1,
        type: 3}
      propertyPath: m_textInfo.characterCount
      value: 0
      objectReference: {fileID: 0}
    - target: {fileID: 12785507296127566, guid: 453b5f425ed8bd011afc58a665c3f5b1,
        type: 3}
      propertyPath: m_textInfo.spaceCount
      value: 0
      objectReference: {fileID: 0}
    - target: {fileID: 12785507296127566, guid: 453b5f425ed8bd011afc58a665c3f5b1,
        type: 3}
      propertyPath: m_textInfo.wordCount
      value: 0
      objectReference: {fileID: 0}
    - target: {fileID: 12785507296127566, guid: 453b5f425ed8bd011afc58a665c3f5b1,
        type: 3}
      propertyPath: m_textInfo.lineCount
      value: 0
      objectReference: {fileID: 0}
    - target: {fileID: 12785507296127566, guid: 453b5f425ed8bd011afc58a665c3f5b1,
        type: 3}
      propertyPath: m_textInfo.pageCount
      value: 0
      objectReference: {fileID: 0}
    - target: {fileID: 82960165976870780, guid: 453b5f425ed8bd011afc58a665c3f5b1,
        type: 3}
      propertyPath: m_LocalPosition.x
      value: 19.988298
      objectReference: {fileID: 0}
    - target: {fileID: 82960165976870780, guid: 453b5f425ed8bd011afc58a665c3f5b1,
        type: 3}
      propertyPath: m_LocalPosition.y
      value: -1.0169957
      objectReference: {fileID: 0}
    - target: {fileID: 82960165976870780, guid: 453b5f425ed8bd011afc58a665c3f5b1,
        type: 3}
      propertyPath: m_LocalPosition.z
      value: 5.48914
      objectReference: {fileID: 0}
    - target: {fileID: 82960165976870780, guid: 453b5f425ed8bd011afc58a665c3f5b1,
        type: 3}
      propertyPath: m_LocalRotation.x
      value: 0
      objectReference: {fileID: 0}
    - target: {fileID: 82960165976870780, guid: 453b5f425ed8bd011afc58a665c3f5b1,
        type: 3}
      propertyPath: m_LocalRotation.y
      value: 0
      objectReference: {fileID: 0}
    - target: {fileID: 82960165976870780, guid: 453b5f425ed8bd011afc58a665c3f5b1,
        type: 3}
      propertyPath: m_LocalRotation.z
      value: 0
      objectReference: {fileID: 0}
    - target: {fileID: 82960165976870780, guid: 453b5f425ed8bd011afc58a665c3f5b1,
        type: 3}
      propertyPath: m_LocalRotation.w
      value: 1
      objectReference: {fileID: 0}
    - target: {fileID: 82960165976870780, guid: 453b5f425ed8bd011afc58a665c3f5b1,
        type: 3}
      propertyPath: m_RootOrder
      value: 0
      objectReference: {fileID: 0}
    - target: {fileID: 82960165976870780, guid: 453b5f425ed8bd011afc58a665c3f5b1,
        type: 3}
      propertyPath: m_LocalEulerAnglesHint.x
      value: 0
      objectReference: {fileID: 0}
    - target: {fileID: 82960165976870780, guid: 453b5f425ed8bd011afc58a665c3f5b1,
        type: 3}
      propertyPath: m_LocalEulerAnglesHint.y
      value: 0
      objectReference: {fileID: 0}
    - target: {fileID: 82960165976870780, guid: 453b5f425ed8bd011afc58a665c3f5b1,
        type: 3}
      propertyPath: m_LocalEulerAnglesHint.z
      value: 0
      objectReference: {fileID: 0}
    - target: {fileID: 352911979540683237, guid: 453b5f425ed8bd011afc58a665c3f5b1,
        type: 3}
      propertyPath: m_LocalPosition.z
      value: 0
      objectReference: {fileID: 0}
    - target: {fileID: 713384335673899408, guid: 453b5f425ed8bd011afc58a665c3f5b1,
        type: 3}
      propertyPath: m_textInfo.characterCount
      value: 0
      objectReference: {fileID: 0}
    - target: {fileID: 713384335673899408, guid: 453b5f425ed8bd011afc58a665c3f5b1,
        type: 3}
      propertyPath: m_textInfo.spaceCount
      value: 0
      objectReference: {fileID: 0}
    - target: {fileID: 713384335673899408, guid: 453b5f425ed8bd011afc58a665c3f5b1,
        type: 3}
      propertyPath: m_textInfo.wordCount
      value: 0
      objectReference: {fileID: 0}
    - target: {fileID: 713384335673899408, guid: 453b5f425ed8bd011afc58a665c3f5b1,
        type: 3}
      propertyPath: m_textInfo.lineCount
      value: 0
      objectReference: {fileID: 0}
    - target: {fileID: 713384335673899408, guid: 453b5f425ed8bd011afc58a665c3f5b1,
        type: 3}
      propertyPath: m_textInfo.pageCount
      value: 0
      objectReference: {fileID: 0}
    - target: {fileID: 754122065055409331, guid: 453b5f425ed8bd011afc58a665c3f5b1,
        type: 3}
      propertyPath: m_textInfo.characterCount
      value: 0
      objectReference: {fileID: 0}
    - target: {fileID: 754122065055409331, guid: 453b5f425ed8bd011afc58a665c3f5b1,
        type: 3}
      propertyPath: m_textInfo.wordCount
      value: 0
      objectReference: {fileID: 0}
    - target: {fileID: 754122065055409331, guid: 453b5f425ed8bd011afc58a665c3f5b1,
        type: 3}
      propertyPath: m_textInfo.lineCount
      value: 0
      objectReference: {fileID: 0}
    - target: {fileID: 754122065055409331, guid: 453b5f425ed8bd011afc58a665c3f5b1,
        type: 3}
      propertyPath: m_textInfo.pageCount
      value: 0
      objectReference: {fileID: 0}
    - target: {fileID: 754122065055409331, guid: 453b5f425ed8bd011afc58a665c3f5b1,
        type: 3}
      propertyPath: m_text
      value: 
      objectReference: {fileID: 0}
    - target: {fileID: 1799308794979058722, guid: 453b5f425ed8bd011afc58a665c3f5b1,
        type: 3}
      propertyPath: m_textInfo.characterCount
      value: 0
      objectReference: {fileID: 0}
    - target: {fileID: 1799308794979058722, guid: 453b5f425ed8bd011afc58a665c3f5b1,
        type: 3}
      propertyPath: m_textInfo.wordCount
      value: 0
      objectReference: {fileID: 0}
    - target: {fileID: 1799308794979058722, guid: 453b5f425ed8bd011afc58a665c3f5b1,
        type: 3}
      propertyPath: m_textInfo.lineCount
      value: 0
      objectReference: {fileID: 0}
    - target: {fileID: 1799308794979058722, guid: 453b5f425ed8bd011afc58a665c3f5b1,
        type: 3}
      propertyPath: m_textInfo.pageCount
      value: 0
      objectReference: {fileID: 0}
    - target: {fileID: 1799308794979058722, guid: 453b5f425ed8bd011afc58a665c3f5b1,
        type: 3}
      propertyPath: m_text
      value: 
      objectReference: {fileID: 0}
    - target: {fileID: 2522735715070471368, guid: 453b5f425ed8bd011afc58a665c3f5b1,
        type: 3}
      propertyPath: m_RootOrder
      value: 0
      objectReference: {fileID: 0}
    - target: {fileID: 3102137936844986370, guid: 453b5f425ed8bd011afc58a665c3f5b1,
        type: 3}
      propertyPath: m_textInfo.characterCount
      value: 0
      objectReference: {fileID: 0}
    - target: {fileID: 3102137936844986370, guid: 453b5f425ed8bd011afc58a665c3f5b1,
        type: 3}
      propertyPath: m_textInfo.spaceCount
      value: 0
      objectReference: {fileID: 0}
    - target: {fileID: 3102137936844986370, guid: 453b5f425ed8bd011afc58a665c3f5b1,
        type: 3}
      propertyPath: m_textInfo.wordCount
      value: 0
      objectReference: {fileID: 0}
    - target: {fileID: 3102137936844986370, guid: 453b5f425ed8bd011afc58a665c3f5b1,
        type: 3}
      propertyPath: m_textInfo.lineCount
      value: 0
      objectReference: {fileID: 0}
    - target: {fileID: 3102137936844986370, guid: 453b5f425ed8bd011afc58a665c3f5b1,
        type: 3}
      propertyPath: m_textInfo.pageCount
      value: 0
      objectReference: {fileID: 0}
    - target: {fileID: 3102137938292249179, guid: 453b5f425ed8bd011afc58a665c3f5b1,
        type: 3}
      propertyPath: m_RootOrder
      value: 1
      objectReference: {fileID: 0}
    - target: {fileID: 3102137938489272781, guid: 453b5f425ed8bd011afc58a665c3f5b1,
        type: 3}
      propertyPath: m_textInfo.characterCount
      value: 0
      objectReference: {fileID: 0}
    - target: {fileID: 3102137938489272781, guid: 453b5f425ed8bd011afc58a665c3f5b1,
        type: 3}
      propertyPath: m_textInfo.spaceCount
      value: 0
      objectReference: {fileID: 0}
    - target: {fileID: 3102137938489272781, guid: 453b5f425ed8bd011afc58a665c3f5b1,
        type: 3}
      propertyPath: m_textInfo.wordCount
      value: 0
      objectReference: {fileID: 0}
    - target: {fileID: 3102137938489272781, guid: 453b5f425ed8bd011afc58a665c3f5b1,
        type: 3}
      propertyPath: m_textInfo.lineCount
      value: 0
      objectReference: {fileID: 0}
    - target: {fileID: 3102137938489272781, guid: 453b5f425ed8bd011afc58a665c3f5b1,
        type: 3}
      propertyPath: m_textInfo.pageCount
      value: 0
      objectReference: {fileID: 0}
    - target: {fileID: 6500832108021149121, guid: 453b5f425ed8bd011afc58a665c3f5b1,
        type: 3}
      propertyPath: audienceReaction
      value: 30
      objectReference: {fileID: 0}
    - target: {fileID: 6500832108021149121, guid: 453b5f425ed8bd011afc58a665c3f5b1,
        type: 3}
      propertyPath: successBenefit
      value: 10
      objectReference: {fileID: 0}
    - target: {fileID: 7412637963596080715, guid: 453b5f425ed8bd011afc58a665c3f5b1,
        type: 3}
      propertyPath: m_Sprite
      value: 
      objectReference: {fileID: 21300000, guid: 5c1bbde63a7230f478d4f825294a93f0,
        type: 3}
    - target: {fileID: 7432835525543065722, guid: 453b5f425ed8bd011afc58a665c3f5b1,
        type: 3}
      propertyPath: m_textInfo.characterCount
      value: 26
      objectReference: {fileID: 0}
    - target: {fileID: 7432835525543065722, guid: 453b5f425ed8bd011afc58a665c3f5b1,
        type: 3}
      propertyPath: m_textInfo.spaceCount
      value: 3
      objectReference: {fileID: 0}
    - target: {fileID: 7432835525543065722, guid: 453b5f425ed8bd011afc58a665c3f5b1,
        type: 3}
      propertyPath: m_textInfo.wordCount
      value: 4
      objectReference: {fileID: 0}
    - target: {fileID: 7432835525543065722, guid: 453b5f425ed8bd011afc58a665c3f5b1,
        type: 3}
      propertyPath: m_textInfo.lineCount
      value: 1
      objectReference: {fileID: 0}
    - target: {fileID: 7432835525543065722, guid: 453b5f425ed8bd011afc58a665c3f5b1,
        type: 3}
      propertyPath: m_textInfo.pageCount
      value: 1
      objectReference: {fileID: 0}
    - target: {fileID: 7432835525543065722, guid: 453b5f425ed8bd011afc58a665c3f5b1,
        type: 3}
      propertyPath: m_text
      value: Press Spacebar to Interact
      objectReference: {fileID: 0}
    - target: {fileID: 7453934381919586660, guid: 453b5f425ed8bd011afc58a665c3f5b1,
        type: 3}
      propertyPath: m_Sprite
      value: 
      objectReference: {fileID: 21300000, guid: 656fd78444fd6a948b4c3e96213c7c2a,
        type: 3}
    - target: {fileID: 8002223821159191098, guid: 453b5f425ed8bd011afc58a665c3f5b1,
        type: 3}
      propertyPath: m_AdditionalShaderChannelsFlag
      value: 25
      objectReference: {fileID: 0}
    - target: {fileID: 8164412383362296381, guid: 453b5f425ed8bd011afc58a665c3f5b1,
        type: 3}
      propertyPath: m_Name
      value: Contents
      objectReference: {fileID: 0}
    - target: {fileID: 8764240566591999655, guid: 453b5f425ed8bd011afc58a665c3f5b1,
        type: 3}
      propertyPath: sm
      value: 
      objectReference: {fileID: 6500832106420055813}
    m_RemovedComponents:
    - {fileID: 6120577817015583653, guid: 453b5f425ed8bd011afc58a665c3f5b1, type: 3}
  m_SourcePrefab: {fileID: 100100000, guid: 453b5f425ed8bd011afc58a665c3f5b1, type: 3}
--- !u!114 &6500832106420055813 stripped
MonoBehaviour:
  m_CorrespondingSourceObject: {fileID: 5212330665095794980, guid: 453b5f425ed8bd011afc58a665c3f5b1,
    type: 3}
  m_PrefabInstance: {fileID: 6500832106420055812}
  m_PrefabAsset: {fileID: 0}
  m_GameObject: {fileID: 0}
  m_Enabled: 1
  m_EditorHideFlags: 0
  m_Script: {fileID: 11500000, guid: 164911ea414962842abdfb46b257c883, type: 3}
  m_Name: 
  m_EditorClassIdentifier: 
